Text Mining
…
Zipf’s Law

This previous visualization depicts the frequency of the 96 most common terms across documents. The sheer number of features is readily apparent, as evidenced by the high dimensionality of the matrices. Notably, certain words shine brighter due to their significantly higher frequency compared to others. This hints at Zipf’s Law from quantitative linguistics, where a word’s frequency inversely correlates with its ranking in the frequency table.

For example, given the word frequency and rank of the words in Jane Austen books:

# A tibble: 40,379 × 4
   book              word      n  rank
   <fct>             <chr> <int> <int>
 1 Mansfield Park    the    6206     1
 2 Mansfield Park    to     5475     2
 3 Mansfield Park    and    5438     3
 4 Emma              to     5239     4
 5 Emma              the    5201     5
 6 Emma              and    4896     6
 7 Mansfield Park    of     4778     7
 8 Pride & Prejudice the    4331     8
 9 Emma              of     4291     9
10 Pride & Prejudice to     4162    10
# ℹ 40,369 more rows
…
